[
    {
        "image": "nginx:alpine",
        "replicas": 1,
        "name": "nginx",
        "ports": [],
        "env": [],
        "webapp": false,
        "memory": 128,
        "manifest": {
            "logo": "https://raw.githubusercontent.com/mberbero/coma-vault/main/images/nginx.png",
            "title": "Nginx (Alpine)",
            "description": "NGINX accelerates content and application delivery, improves security, facilitates availability and scalability for the busiest web sites on the Internet",
            "featured": false
        }
    },
    {
        "image": "redis:latest",
        "replicas": 1,
        "name": "redis",
        "ports": [],
        "env": [],
        "webapp": false,
        "memory": 128,
        "manifest": {
            "logo": "https://raw.githubusercontent.com/mberbero/coma-vault/main/images/redis.png",
            "title": "Redis (Latest)",
            "description": "Redis is an open source (BSD licensed), in-memory data structure store, used as a database, cache, and message broker.",
            "featured": true
        }
    },
    {
        "image": "mongo:latest",
        "replicas": 1,
        "name": "mongo",
        "ports": [],
        "env": [],
        "webapp": false,
        "memory": 512,
        "manifest": {
            "logo": "https://raw.githubusercontent.com/mberbero/coma-vault/main/images/mongo.png",
            "title": "MongoDB (Latest)",
            "description": "MongoDB is a document database, which means it stores data in JSON-like documents.",
            "featured": false
        }
    },
    {
        "image": "ghost:alpine",
        "replicas": 1,
        "name": "ghost",
        "ports": [],
        "httport": 2368,
        "env": [
            {
                "key": "url",
                "value": "http://ghost.localhost"
            }
        ],
        "webapp": true,
        "memory": 512,
        "manifest": {
            "logo": "https://raw.githubusercontent.com/mberbero/coma-vault/main/images/ghost.png",
            "title": "Ghost (Alpine)",
            "description": "The world's most popular modern publishing platform for creating a new media platform. Used by Apple, SkyNews, Buffer, OpenAI, and thousands more.",
            "featured": true
        }
    },
    {
        "image": "adguard/adguardhome",
        "replicas": 1,
        "name": "adguard",
        "ports": [],
        "env":[],
        "httport": 3000,
        "webapp": true,
        "memory": 512,
        "manifest": {
            "logo": "https://raw.githubusercontent.com/mberbero/coma-vault/main/images/adguard.png",
            "title": "AdGuard Home",
            "description": "AdGuard Home is a network-wide software for blocking ads & tracking",
            "featured": false
        }
    }
]